id\co\dian\karyawan\security\WebSecurityConfig.class
id\co\dian\karyawan\dto\GroupDto.class
id\co\dian\karyawan\security\BasicAuth.class
id\co\dian\karyawan\service\EmployeeServiceImpl.class
id\co\dian\karyawan\repository\GroupRepository.class
id\co\dian\karyawan\exception\CustomizedUnAuthorizedException.class
id\co\dian\karyawan\repository\UserRepository$getAl_Users.class
id\co\dian\karyawan\service\GroupServiceImpl.class
id\co\dian\karyawan\config\ThymeleafConfig.class
id\co\dian\karyawan\service\UserService.class
id\co\dian\karyawan\exception\CustomizedBadRequestException.class
id\co\dian\karyawan\controller\DashboardController.class
id\co\dian\karyawan\sql\ConnectionSqlServer.class
id\co\dian\karyawan\repository\GroupRepository$getAl_Group.class
id\co\dian\karyawan\config\MvcConfig.class
id\co\dian\karyawan\repository\PositionRepository.class
id\co\dian\karyawan\controller\UserController.class
id\co\dian\karyawan\controller\EmployeeController.class
id\co\dian\karyawan\repository\EmployeeRepository.class
id\co\dian\karyawan\service\AbstractService.class
id\co\dian\karyawan\service\PositionService.class
id\co\dian\karyawan\controller\UserRestController.class
id\co\dian\karyawan\service\PositionServiceImpl.class
id\co\dian\karyawan\service\EmployeeService.class
id\co\dian\karyawan\model\AbstractModel.class
id\co\dian\karyawan\dto\UserDto.class
id\co\dian\karyawan\service\GroupService.class
id\co\dian\karyawan\repository\UserRepository.class
id\co\dian\karyawan\SistemApplication.class
id\co\dian\karyawan\model\Position.class
id\co\dian\karyawan\model\User.class
id\co\dian\karyawan\model\Group.class
id\co\dian\karyawan\model\Employee.class
id\co\dian\karyawan\controller\GroupRestController.class
id\co\dian\karyawan\service\UserServiceImpl.class
